project/template_2/trace.vcd
$date
  Sat Jun  3 02:48:32 2023
$end
$version
  GHDL v0
$end
$timescale
  1 fs
$end
$scope module standard $end
$upscope $end
$scope module textio $end
$upscope $end
$scope module std_logic_1164 $end
$upscope $end
$scope module numeric_std $end
$upscope $end
$scope module checkresultpkg $end
$var reg 32 ! g_dmem_128[31:0] $end
$var reg 32 " g_dmem_129[31:0] $end
$var reg 32 # g_dmem_130[31:0] $end
$var reg 32 $ g_dmem_131[31:0] $end
$upscope $end
$scope module env $end
$upscope $end
$scope module std_logic_arith $end
$upscope $end
$scope module std_logic_textio $end
$upscope $end
$scope module testbench $end
$var reg 32 % writedata[31:0] $end
$var reg 32 & dataadr[31:0] $end
$var reg 1 ' clk $end
$var reg 1 ( reset $end
$var reg 1 ) memwrite $end
$scope module dut $end
$var reg 1 * clk $end
$var reg 1 + reset $end
$var reg 32 , writedata[31:0] $end
$var reg 32 - dataadr[31:0] $end
$var reg 1 . memwrite $end
$var reg 32 / pc[31:0] $end
$var reg 32 0 instr[31:0] $end
$var reg 32 1 readdata[31:0] $end
$var reg 1 2 memwrite_s $end
$var reg 32 3 writedata_s[31:0] $end
$var reg 32 4 dataadr_s[31:0] $end
$scope module rvsingle $end
$var reg 1 5 clk $end
$var reg 1 6 reset $end
$var reg 32 7 pc[31:0] $end
$var reg 32 8 instr[31:0] $end
$var reg 1 9 memwrite $end
$var reg 32 : aluresult[31:0] $end
$var reg 32 ; writedata[31:0] $end
$var reg 32 < readdata[31:0] $end
$var reg 1 = regwrite $end
$var reg 1 > jump $end
$var reg 1 ? zero $end
$var reg 1 @ pcsrc $end
$var reg 1 A blt $end
$var reg 1 B shiftsrc $end
$var reg 1 C jalr $end
$var reg 2 D resultsrc[1:0] $end
$var reg 2 E alusrc[1:0] $end
$var reg 3 F alucontrol[2:0] $end
$var reg 3 G immsrc[2:0] $end
$scope module c $end
$var reg 7 H op[6:0] $end
$var reg 3 I funct3[2:0] $end
$var reg 1 J funct7b5 $end
$var reg 1 K zero $end
$var reg 2 L resultsrc[1:0] $end
$var reg 1 M memwrite $end
$var reg 1 N pcsrc $end
$var reg 2 O alusrc[1:0] $end
$var reg 1 P regwrite $end
$var reg 1 Q jump $end
$var reg 3 R immsrc[2:0] $end
$var reg 3 S alucontrol[2:0] $end
$var reg 1 T blt $end
$var reg 1 U shiftsrc $end
$var reg 1 V jalr $end
$var reg 2 W aluop[1:0] $end
$var reg 1 X branch $end
$var reg 1 Y jump_s $end
$scope module md $end
$var reg 7 Z op[6:0] $end
$var reg 3 [ funct3[2:0] $end
$var reg 2 \ resultsrc[1:0] $end
$var reg 1 ] memwrite $end
$var reg 1 ^ branch $end
$var reg 2 _ alusrc[1:0] $end
$var reg 1 ` regwrite $end
$var reg 1 a jump $end
$var reg 3 b immsrc[2:0] $end
$var reg 2 c aluop[1:0] $end
$var reg 1 d blt $end
$var reg 1 e shiftsrc $end
$var reg 1 f jalr $end
$var reg 16 g controls[15:0] $end
$upscope $end
$scope module ad $end
$var reg 1 h opb5 $end
$var reg 3 i funct3[2:0] $end
$var reg 1 j funct7b5 $end
$var reg 2 k aluop[1:0] $end
$var reg 3 l alucontrol[2:0] $end
$var reg 1 m rtypesub $end
$upscope $end
$upscope $end
$scope module dp $end
$var reg 1 n clk $end
$var reg 1 o reset $end
$var reg 2 p resultsrc[1:0] $end
$var reg 1 q pcsrc $end
$var reg 2 r alusrc[1:0] $end
$var reg 1 s regwrite $end
$var reg 3 t immsrc[2:0] $end
$var reg 3 u alucontrol[2:0] $end
$var reg 1 v blt $end
$var reg 1 w shiftsrc $end
$var reg 1 x zero $end
$var reg 32 y pc[31:0] $end
$var reg 32 z instr[31:0] $end
$var reg 32 { aluresult[31:0] $end
$var reg 32 | writedata[31:0] $end
$var reg 32 } readdata[31:0] $end
$var reg 1 !" jalr $end
$var reg 32 "" pcnext[31:0] $end
$var reg 32 #" pcplus4[31:0] $end
$var reg 32 $" pctarget[31:0] $end
$var reg 32 %" immext[31:0] $end
$var reg 32 &" rd1[31:0] $end
$var reg 32 '" rd2[31:0] $end
$var reg 32 (" srca[31:0] $end
$var reg 32 )" srcb[31:0] $end
$var reg 32 *" shifta[31:0] $end
$var reg 32 +" shiftb[31:0] $end
$var reg 32 ," shiftout[31:0] $end
$var reg 32 -" result[31:0] $end
$var reg 1 ." zero_s $end
$var reg 32 /" pc_s[31:0] $end
$var reg 32 0" writedata_s[31:0] $end
$var reg 32 1" aluresult_s[31:0] $end
$scope module pcreg $end
$var reg 1 2" clk $end
$var reg 1 3" reset $end
$var reg 32 4" d[31:0] $end
$var reg 32 5" q[31:0] $end
$upscope $end
$scope module pcadd4 $end
$var reg 32 6" a[31:0] $end
$var reg 32 7" b[31:0] $end
$var reg 32 8" y[31:0] $end
$upscope $end
$scope module pcaddbranch $end
$var reg 32 9" a[31:0] $end
$var reg 32 :" b[31:0] $end
$var reg 32 ;" y[31:0] $end
$upscope $end
$scope module pcmux $end
$var reg 32 <" d0[31:0] $end
$var reg 32 =" d1[31:0] $end
$var reg 32 >" d2[31:0] $end
$var reg 2 ?" s[1:0] $end
$var reg 32 @" y[31:0] $end
$upscope $end
$scope module rf $end
$var reg 1 A" clk $end
$var reg 1 B" we3 $end
$var reg 5 C" a1[4:0] $end
$var reg 5 D" a2[4:0] $end
$var reg 5 E" a3[4:0] $end
$var reg 32 F" wd3[31:0] $end
$var reg 32 G" rd1[31:0] $end
$var reg 32 H" rd2[31:0] $end
$comment mem is not handled $end
$upscope $end
$scope module ext $end
$var reg 25 I" instr[31:7] $end
$var reg 3 J" immsrc[2:0] $end
$var reg 32 K" immext[31:0] $end
$upscope $end
$scope module shiftmuxa $end
$var reg 32 L" d0[31:0] $end
$var reg 32 M" d1[31:0] $end
$var reg 1 N" s $end
$var reg 32 O" y[31:0] $end
$upscope $end
$scope module shiftmuxb $end
$var reg 32 P" d0[31:0] $end
$var reg 32 Q" d1[31:0] $end
$var reg 1 R" s $end
$var reg 32 S" y[31:0] $end
$upscope $end
$scope module shift $end
$var reg 32 T" a[31:0] $end
$var reg 32 U" b[31:0] $end
$var reg 32 V" y[31:0] $end
$upscope $end
$scope module srcamux $end
$var reg 32 W" d0[31:0] $end
$var reg 32 X" d1[31:0] $end
$var reg 1 Y" s $end
$var reg 32 Z" y[31:0] $end
$upscope $end
$scope module srcbmux $end
$var reg 32 [" d0[31:0] $end
$var reg 32 \" d1[31:0] $end
$var reg 32 ]" d2[31:0] $end
$var reg 2 ^" s[1:0] $end
$var reg 32 _" y[31:0] $end
$upscope $end
$scope module mainalu $end
$var reg 32 `" a[31:0] $end
$var reg 32 a" b[31:0] $end
$var reg 3 b" alucontrol[2:0] $end
$var reg 32 c" aluresult[31:0] $end
$var reg 1 d" zero $end
$var reg 32 e" condinvb[31:0] $end
$var reg 32 f" sum[31:0] $end
$var reg 32 g" alucontrol_0_tmp[31:0] $end
$var reg 32 h" aluresult_s[31:0] $end
$upscope $end
$scope module resultmux $end
$var reg 32 i" d0[31:0] $end
$var reg 32 j" d1[31:0] $end
$var reg 32 k" d2[31:0] $end
$var reg 32 l" d3[31:0] $end
$var reg 2 m" s[1:0] $end
$var reg 32 n" y[31:0] $end
$upscope $end
$scope module zeromux $end
$var reg 1 o" d0 $end
$var reg 1 p" d1 $end
$var reg 1 q" s $end
$var reg 1 r" y $end
$upscope $end
$upscope $end
$upscope $end
$scope module imem1 $end
$var reg 32 s" a[31:0] $end
$var reg 32 t" rd[31:0] $end
$comment i_mem is not handled $end
$upscope $end
$scope module dmem1 $end
$var reg 1 u" clk $end
$var reg 1 v" we $end
$var reg 32 w" a[31:0] $end
$var reg 32 x" wd[31:0] $end
$var reg 32 y" rd[31:0] $end
$comment d_mem is not handled $end
$upscope $end
$upscope $end
$upscope $end
$enddefinitions $end
#0
b00000000000000000000000000000000 !
b00000000000000000000000000000000 "
b00000000000000000000000000000000 #
b00000000000000000000000000000000 $
b00000000000000000000000000000000 %
b00000000000000000000000000000000 &
1'
1(
0)
1*
1+
b00000000000000000000000000000000 ,
b00000000000000000000000000000000 -
0.
b00000000000000000000000000000000 /
b00000000000000000000010100010011 0
b00000000000000000000000000000000 1
02
b00000000000000000000000000000000 3
b00000000000000000000000000000000 4
15
16
b00000000000000000000000000000000 7
b00000000000000000000010100010011 8
09
b00000000000000000000000000000000 :
b00000000000000000000000000000000 ;
b00000000000000000000000000000000 <
1=
0>
1?
0@
-A
0B
0C
b00 D
b01 E
b000 F
b000 G
b0010011 H
b000 I
0J
1K
b00 L
0M
0N
b01 O
1P
0Q
b000 R
b000 S
-T
0U
0V
b10 W
0X
0Y
b0010011 Z
b000 [
b00 \
0]
0^
b01 _
1`
0a
b000 b
b10 c
-d
0e
0f
b1000010000100-00 g
0h
b000 i
0j
b10 k
b000 l
0m
1n
1o
b00 p
0q
b01 r
1s
b000 t
b000 u
-v
0w
1x
b00000000000000000000000000000000 y
b00000000000000000000010100010011 z
b00000000000000000000000000000000 {
b00000000000000000000000000000000 |
b00000000000000000000000000000000 }
0!"
b00000000000000000000000000000100 ""
b00000000000000000000000000000100 #"
b00000000000000000000000000000000 $"
b00000000000000000000000000000000 %"
b00000000000000000000000000000000 &"
bUUUUUUUUUUUUUUUUUUUUUUUUUUUUUUUU '"
b00000000000000000000000000000000 ("
b00000000000000000000000000000000 )"
b00000000000000000000000000000000 *"
b00000000000000000000000000000000 +"
b00000000000000000000000000000000 ,"
b00000000000000000000000000000000 -"
1."
b00000000000000000000000000000000 /"
b00000000000000000000000000000000 0"
b00000000000000000000000000000000 1"
12"
13"
b00000000000000000000000000000100 4"
b00000000000000000000000000000000 5"
b00000000000000000000000000000000 6"
b00000000000000000000000000000100 7"
b00000000000000000000000000000100 8"
b00000000000000000000000000000000 9"
b00000000000000000000000000000000 :"
b00000000000000000000000000000000 ;"
b00000000000000000000000000000100 <"
b00000000000000000000000000000000 ="
b00000000000000000000000000000000 >"
b00 ?"
b00000000000000000000000000000100 @"
1A"
1B"
b00000 C"
b00000 D"
b01010 E"
b00000000000000000000000000000000 F"
b00000000000000000000000000000000 G"
b00000000000000000000000000000000 H"
b0000000000000000000001010 I"
b000 J"
b00000000000000000000000000000000 K"
b00000000000000000000000000000000 L"
b00000000000000000000000000000000 M"
0N"
b00000000000000000000000000000000 O"
b00000000000000000000000000000000 P"
b00000000000000000000000000001100 Q"
0R"
b00000000000000000000000000000000 S"
b00000000000000000000000000000000 T"
b00000000000000000000000000000000 U"
b00000000000000000000000000000000 V"
b00000000000000000000000000000000 W"
b00000000000000000000000000000000 X"
0Y"
b00000000000000000000000000000000 Z"
b00000000000000000000000000000000 ["
b00000000000000000000000000000000 \"
b00000000000000000000000000000000 ]"
b01 ^"
b00000000000000000000000000000000 _"
b00000000000000000000000000000000 `"
b00000000000000000000000000000000 a"
b000 b"
b00000000000000000000000000000000 c"
1d"
b00000000000000000000000000000000 e"
b00000000000000000000000000000000 f"
b00000000000000000000000000000000 g"
b00000000000000000000000000000000 h"
b00000000000000000000000000000000 i"
b00000000000000000000000000000000 j"
b00000000000000000000000000000100 k"
b00000000000000000000000000000000 l"
b00 m"
b00000000000000000000000000000000 n"
1o"
0p"
-q"
1r"
b00000000000000000000000000000000 s"
b00000000000000000000010100010011 t"
1u"
0v"
b00000000000000000000000000000000 w"
b00000000000000000000000000000000 x"
b00000000000000000000000000000000 y"
#5000000
0'
0*
05
0n
02"
0A"
0u"
#10000000
1'
1*
15
1n
12"
1A"
1u"
#15000000
0'
0*
05
0n
02"
0A"
0u"
#20000000
1'
1*
15
1n
12"
1A"
1u"
#22000000
0(
0+
06
0o
03"
#25000000
0'
0*
05
0n
02"
0A"
0u"
#30000000
b00000000000000000000000000000100 &
1'
1*
b00000000000000000000000000000100 -
b00000000000000000000000000000100 /
b00000000000000000000001100010111 0
b00000000000000000000000000000100 4
15
b00000000000000000000000000000100 7
b00000000000000000000001100010111 8
09
b00000000000000000000000000000100 :
0?
1B
b10 E
b100 G
b0010111 H
0K
b00 L
0M
b10 O
1P
b100 R
-T
1U
0V
b00 W
b0010111 Z
b00 \
0]
0^
b10 _
1`
0a
b100 b
b00 c
-d
1e
0f
b1100100000000-10 g
b00 k
1n
b10 r
b100 t
1w
0x
b00000000000000000000000000000100 y
b00000000000000000000001100010111 z
b00000000000000000000000000000100 {
b00000000000000000000000000001000 ""
b00000000000000000000000000001000 #"
b00000000000000000000000000000100 $"
b00000000000000000000000000000100 )"
b00000000000000000000000000001100 +"
b00000000000000000000000000000100 -"
0."
b00000000000000000000000000000100 /"
b00000000000000000000000000000100 1"
12"
b00000000000000000000000000001000 4"
b00000000000000000000000000000100 5"
b00000000000000000000000000000100 6"
b00000000000000000000000000001000 8"
b00000000000000000000000000000100 9"
b00000000000000000000000000000100 ;"
b00000000000000000000000000001000 <"
b00000000000000000000000000000100 ="
b00000000000000000000000000000100 >"
b00000000000000000000000000001000 @"
1A"
b00110 E"
b00000000000000000000000000000100 F"
b0000000000000000000000110 I"
b100 J"
1N"
1R"
b00000000000000000000000000001100 S"
b00000000000000000000000000001100 U"
1Y"
b00000000000000000000000000000100 ]"
b10 ^"
b00000000000000000000000000000100 _"
b00000000000000000000000000000100 a"
b00000000000000000000000000000100 c"
0d"
b00000000000000000000000000000100 e"
b00000000000000000000000000000100 f"
b00000000000000000000000000000100 h"
b00000000000000000000000000000100 i"
b00000000000000000000000000001000 k"
b00000000000000000000000000000100 n"
0o"
0r"
b00000000000000000000000000000100 s"
b00000000000000000000001100010111 t"
1u"
b00000000000000000000000000000100 w"
#35000000
0'
0*
05
0n
02"
0A"
0u"
#40000000
b00000000000000000000000001000100 &
1'
1*
b00000000000000000000000001000100 -
b00000000000000000000000000001000 /
b00000100000000110000000011100111 0
b00000000000000000000000001000100 4
15
b00000000000000000000000000001000 7
b00000100000000110000000011100111 8
09
b00000000000000000000000001000100 :
1>
1@
0B
1C
b10 D
b01 E
b000 G
b1100111 H
b10 L
0M
1N
b01 O
1P
1Q
b000 R
-T
0U
1V
1Y
b1100111 Z
b10 \
0]
0^
b01 _
1`
1a
b000 b
b00 c
-d
0e
1f
b1000010100001-01 g
1h
1n
b10 p
1q
b01 r
b000 t
0w
b00000000000000000000000000001000 y
b00000100000000110000000011100111 z
b00000000000000000000000001000100 {
1!"
b00000000000000000000000001000100 ""
b00000000000000000000000000001100 #"
b00000000000000000000000001001000 $"
b00000000000000000000000001000000 %"
b00000000000000000000000000000100 &"
b00000000000000000000000000000100 ("
b00000000000000000000000001000000 )"
b00000000000000000000000000000100 *"
b00000000000000000000000001000000 +"
b00000000000000000000000000000100 ,"
b00000000000000000000000000001100 -"
b00000000000000000000000000001000 /"
b00000000000000000000000001000100 1"
12"
b00000000000000000000000001000100 4"
b00000000000000000000000000001000 5"
b00000000000000000000000000001000 6"
b00000000000000000000000000001100 8"
b00000000000000000000000000001000 9"
b00000000000000000000000001000000 :"
b00000000000000000000000001001000 ;"
b00000000000000000000000000001100 <"
b00000000000000000000000001001000 ="
b00000000000000000000000001000100 >"
b11 ?"
b00000000000000000000000001000100 @"
1A"
b00110 C"
b00001 E"
b00000000000000000000000000001100 F"
b00000000000000000000000000000100 G"
b0000010000000011000000001 I"
b000 J"
b00000000000000000000000001000000 K"
b00000000000000000000000000000100 L"
b00000000000000000000000001000000 M"
0N"
b00000000000000000000000000000100 O"
b00000000000000000000000001000000 P"
0R"
b00000000000000000000000001000000 S"
b00000000000000000000000000000100 T"
b00000000000000000000000001000000 U"
b00000000000000000000000000000100 V"
b00000000000000000000000000000100 W"
b00000000000000000000000000000100 X"
0Y"
b00000000000000000000000000000100 Z"
b00000000000000000000000001000000 \"
b00000000000000000000000000001000 ]"
b01 ^"
b00000000000000000000000001000000 _"
b00000000000000000000000000000100 `"
b00000000000000000000000001000000 a"
b00000000000000000000000001000100 c"
b00000000000000000000000001000000 e"
b00000000000000000000000001000100 f"
b00000000000000000000000001000100 h"
b00000000000000000000000001000100 i"
b00000000000000000000000000001100 k"
b00000000000000000000000000000100 l"
b10 m"
b00000000000000000000000000001100 n"
b00000000000000000000000000001000 s"
b00000100000000110000000011100111 t"
1u"
b00000000000000000000000001000100 w"
#45000000
0'
0*
05
0n
02"
0A"
0u"
#50000000
b00000000000000000000000000000000 &
1'
1*
b00000000000000000000000000000000 -
b00000000000000000000000001000100 /
b00000000000000000000010110010011 0
b00000000000000000000000000000000 4
15
b00000000000000000000000001000100 7
b00000000000000000000010110010011 8
09
b00000000000000000000000000000000 :
0>
1?
0@
0C
b00 D
b0010011 H
1K
b00 L
0M
0N
b01 O
1P
0Q
b000 R
-T
0U
0V
b10 W
0Y
b0010011 Z
b00 \
0]
0^
b01 _
1`
0a
b000 b
b10 c
-d
0e
0f
b1000010000100-00 g
0h
b10 k
1n
b00 p
0q
1x
b00000000000000000000000001000100 y
b00000000000000000000010110010011 z
b00000000000000000000000000000000 {
0!"
b00000000000000000000000001001000 ""
b00000000000000000000000001001000 #"
b00000000000000000000000001000100 $"
b00000000000000000000000000000000 %"
b00000000000000000000000000000000 &"
b00000000000000000000000000000000 ("
b00000000000000000000000000000000 )"
b00000000000000000000000000000000 *"
b00000000000000000000000000000000 +"
b00000000000000000000000000000000 ,"
b00000000000000000000000000000000 -"
1."
b00000000000000000000000001000100 /"
b00000000000000000000000000000000 1"
12"
b00000000000000000000000001001000 4"
b00000000000000000000000001000100 5"
b00000000000000000000000001000100 6"
b00000000000000000000000001001000 8"
b00000000000000000000000001000100 9"
b00000000000000000000000000000000 :"
b00000000000000000000000001000100 ;"
b00000000000000000000000001001000 <"
b00000000000000000000000001000100 ="
b00000000000000000000000000000000 >"
b00 ?"
b00000000000000000000000001001000 @"
1A"
b00000 C"
b01011 E"
b00000000000000000000000000000000 F"
b00000000000000000000000000000000 G"
b0000000000000000000001011 I"
b00000000000000000000000000000000 K"
b00000000000000000000000000000000 L"
b00000000000000000000000000000000 M"
b00000000000000000000000000000000 O"
b00000000000000000000000000000000 P"
b00000000000000000000000000000000 S"
b00000000000000000000000000000000 T"
b00000000000000000000000000000000 U"
b00000000000000000000000000000000 V"
b00000000000000000000000000000000 W"
b00000000000000000000000000000000 X"
b00000000000000000000000000000000 Z"
b00000000000000000000000000000000 \"
b00000000000000000000000001000100 ]"
b00000000000000000000000000000000 _"
b00000000000000000000000000000000 `"
b00000000000000000000000000000000 a"
b00000000000000000000000000000000 c"
1d"
b00000000000000000000000000000000 e"
b00000000000000000000000000000000 f"
b00000000000000000000000000000000 h"
b00000000000000000000000000000000 i"
b00000000000000000000000001001000 k"
b00000000000000000000000000000000 l"
b00 m"
b00000000000000000000000000000000 n"
1o"
1r"
b00000000000000000000000001000100 s"
b00000000000000000000010110010011 t"
1u"
b00000000000000000000000000000000 w"
#55000000
0'
0*
05
0n
02"
0A"
0u"
#60000000
b00000000000000000000000000001000 &
1'
1*
b00000000000000000000000000001000 -
b00000000000000000000000001001000 /
b00000000100000000000001010010011 0
b00000000000000000000000000001000 4
15
b00000000000000000000000001001000 7
b00000000100000000000001010010011 8
b00000000000000000000000000001000 :
0?
0K
1n
0x
b00000000000000000000000001001000 y
b00000000100000000000001010010011 z
b00000000000000000000000000001000 {
b00000000000000000000000001001100 ""
b00000000000000000000000001001100 #"
b00000000000000000000000001010000 $"
b00000000000000000000000000001000 %"
b00000000000000000000000000001000 )"
b00000000000000000000000000001000 +"
b00000000000000000000000000001000 -"
0."
b00000000000000000000000001001000 /"
b00000000000000000000000000001000 1"
12"
b00000000000000000000000001001100 4"
b00000000000000000000000001001000 5"
b00000000000000000000000001001000 6"
b00000000000000000000000001001100 8"
b00000000000000000000000001001000 9"
b00000000000000000000000000001000 :"
b00000000000000000000000001010000 ;"
b00000000000000000000000001001100 <"
b00000000000000000000000001010000 ="
b00000000000000000000000000001000 >"
b00000000000000000000000001001100 @"
1A"
b01000 D"
b00101 E"
b00000000000000000000000000001000 F"
b0000000010000000000000101 I"
b00000000000000000000000000001000 K"
b00000000000000000000000000001000 M"
b00000000000000000000000000001000 P"
b00000000000000000000000000001000 S"
b00000000000000000000000000001000 U"
b00000000000000000000000000001000 \"
b00000000000000000000000001001000 ]"
b00000000000000000000000000001000 _"
b00000000000000000000000000001000 a"
b00000000000000000000000000001000 c"
0d"
b00000000000000000000000000001000 e"
b00000000000000000000000000001000 f"
b00000000000000000000000000001000 h"
b00000000000000000000000000001000 i"
b00000000000000000000000001001100 k"
b00000000000000000000000000001000 n"
0o"
0r"
b00000000000000000000000001001000 s"
b00000000100000000000001010010011 t"
1u"
b00000000000000000000000000001000 w"
#65000000
0'
0*
05
0n
02"
0A"
0u"
#70000000
bXXXXXXXXXXXXXXXXXXXXXXXXXXXXXXXX &
1'
1*
bXXXXXXXXXXXXXXXXXXXXXXXXXXXXXXXX -
b00000000000000000000000001001100 /
b00000001100001010001010100010011 0
bXXXXXXXXXXXXXXXXXXXXXXXXXXXXXXXX 4
15
b00000000000000000000000001001100 7
b00000001100001010001010100010011 8
09
bXXXXXXXXXXXXXXXXXXXXXXXXXXXXXXXX :
b11 D
b--- F
b001 I
b11 L
0M
b01 O
1P
b000 R
b--- S
-T
0U
0V
b001 [
b11 \
0]
0^
b01 _
1`
0a
b000 b
b10 c
-d
0e
0f
b1000010110100-00 g
b001 i
b--- l
1n
b11 p
b--- u
b00000000000000000000000001001100 y
b00000001100001010001010100010011 z
bXXXXXXXXXXXXXXXXXXXXXXXXXXXXXXXX {
b00000000000000000000000001010000 ""
b00000000000000000000000001010000 #"
b00000000000000000000000001100100 $"
b00000000000000000000000000011000 %"
b00000000000000000000000000011000 )"
b00000000000000000000000000011000 +"
b00000000000000000000000000000000 -"
b00000000000000000000000001001100 /"
bXXXXXXXXXXXXXXXXXXXXXXXXXXXXXXXX 1"
12"
b00000000000000000000000001010000 4"
b00000000000000000000000001001100 5"
b00000000000000000000000001001100 6"
b00000000000000000000000001010000 8"
b00000000000000000000000001001100 9"
b00000000000000000000000000011000 :"
b00000000000000000000000001100100 ;"
b00000000000000000000000001010000 <"
b00000000000000000000000001100100 ="
bXXXXXXXXXXXXXXXXXXXXXXXXXXXXXXXX >"
b00000000000000000000000001010000 @"
1A"
b01010 C"
b11000 D"
b01010 E"
b00000000000000000000000000000000 F"
b0000000110000101000101010 I"
b00000000000000000000000000011000 K"
b00000000000000000000000000011000 M"
b00000000000000000000000000011000 P"
b00000000000000000000000000011000 S"
b00000000000000000000000000011000 U"
b00000000000000000000000000011000 \"
b00000000000000000000000001001100 ]"
b00000000000000000000000000011000 _"
b00000000000000000000000000011000 a"
b--- b"
bXXXXXXXXXXXXXXXXXXXXXXXXXXXXXXXX c"
b00000000000000000000000000011000 e"
bXXXXXXXXXXXXXXXXXXXXXXXXXXXXXXXX f"
b0000000000000000000000000000000- g"
bXXXXXXXXXXXXXXXXXXXXXXXXXXXXXXXX h"
bXXXXXXXXXXXXXXXXXXXXXXXXXXXXXXXX i"
b00000000000000000000000001010000 k"
b11 m"
b00000000000000000000000000000000 n"
Xp"
b00000000000000000000000001001100 s"
b00000001100001010001010100010011 t"
1u"
bXXXXXXXXXXXXXXXXXXXXXXXXXXXXXXXX w"
#75000000
0'
0*
05
0n
02"
0A"
0u"
#80000000
b00000000000000000000000000000000 &
1'
1*
b00000000000000000000000000000000 -
b00000000000000000000000001010000 /
b00000000000001010100010001100011 0
b00000000000000000000000000000000 4
15
b00000000000000000000000001010000 7
b00000000000001010100010001100011 8
09
b00000000000000000000000000000000 :
0=
0?
0@
1A
b-- D
b00 E
b001 F
b010 G
b1100011 H
b100 I
0K
b-- L
0M
0N
b00 O
0P
b010 R
b001 S
1T
0U
0V
1X
b1100011 Z
b100 [
b-- \
0]
1^
b00 _
0`
0a
b010 b
b10 c
1d
0e
0f
b0010000--1100100 g
1h
b100 i
b001 l
1n
b-- p
0q
b00 r
0s
b010 t
b001 u
1v
0x
b00000000000000000000000001010000 y
b00000000000001010100010001100011 z
b00000000000000000000000000000000 {
b00000000000000000000000001010100 ""
b00000000000000000000000001010100 #"
b00000000000000000000000001011000 $"
b00000000000000000000000000001000 %"
b00000000000000000000000000000000 )"
b00000000000000000000000000001000 +"
1."
b00000000000000000000000001010000 /"
b00000000000000000000000000000000 1"
12"
b00000000000000000000000001010100 4"
b00000000000000000000000001010000 5"
b00000000000000000000000001010000 6"
b00000000000000000000000001010100 8"
b00000000000000000000000001010000 9"
b00000000000000000000000000001000 :"
b00000000000000000000000001011000 ;"
b00000000000000000000000001010100 <"
b00000000000000000000000001011000 ="
b00000000000000000000000000000000 >"
b00 ?"
b00000000000000000000000001010100 @"
1A"
0B"
b00000 D"
b01000 E"
b0000000000000101010001000 I"
b010 J"
b00000000000000000000000000001000 K"
b00000000000000000000000000001000 M"
b00000000000000000000000000001000 P"
b00000000000000000000000000001000 S"
b00000000000000000000000000001000 U"
b00000000000000000000000000001000 \"
b00000000000000000000000001010000 ]"
b00 ^"
b00000000000000000000000000000000 _"
b00000000000000000000000000000000 a"
b001 b"
b00000000000000000000000000000000 c"
1d"
b11111111111111111111111111111111 e"
b00000000000000000000000000000000 f"
b00000000000000000000000000000001 g"
b00000000000000000000000000000000 h"
b00000000000000000000000000000000 i"
b00000000000000000000000001010100 k"
b-- m"
1o"
0p"
1q"
0r"
b00000000000000000000000001010000 s"
b00000000000001010100010001100011 t"
1u"
b00000000000000000000000000000000 w"
#85000000
0'
0*
05
0n
02"
0A"
0u"
#90000000
1'
1*
b00000000000000000000000001010100 /
b00000000100000000000000001101111 0
15
b00000000000000000000000001010100 7
b00000000100000000000000001101111 8
09
1=
1>
1?
1@
-A
b10 D
b000 F
b011 G
b1101111 H
b000 I
1K
b10 L
0M
1N
b00 O
1P
1Q
b011 R
b000 S
-T
0U
0V
b00 W
0X
1Y
b1101111 Z
b000 [
b10 \
0]
0^
b00 _
1`
1a
b011 b
b00 c
-d
0e
0f
b1011000100001-00 g
b000 i
b00 k
b000 l
1n
b10 p
1q
1s
b011 t
b000 u
-v
1x
b00000000000000000000000001010100 y
b00000000100000000000000001101111 z
b00000000000000000000000001011100 ""
b00000000000000000000000001011000 #"
b00000000000000000000000001011100 $"
b00000000000000000000000000001000 %"
b00000000000000000000000000001000 +"
b00000000000000000000000001011000 -"
b00000000000000000000000001010100 /"
12"
b00000000000000000000000001011100 4"
b00000000000000000000000001010100 5"
b00000000000000000000000001010100 6"
b00000000000000000000000001011000 8"
b00000000000000000000000001010100 9"
b00000000000000000000000000001000 :"
b00000000000000000000000001011100 ;"
b00000000000000000000000001011000 <"
b00000000000000000000000001011100 ="
b01 ?"
b00000000000000000000000001011100 @"
1A"
1B"
b00000 C"
b01000 D"
b00000 E"
b00000000000000000000000001011000 F"
b0000000010000000000000000 I"
b011 J"
b00000000000000000000000000001000 K"
b00000000000000000000000000001000 M"
b00000000000000000000000000001000 P"
b00000000000000000000000000001000 S"
b00000000000000000000000000001000 U"
b00000000000000000000000000001000 \"
b00000000000000000000000001010100 ]"
b000 b"
b00000000000000000000000000000000 e"
b00000000000000000000000000000000 g"
b00000000000000000000000001011000 k"
b10 m"
b00000000000000000000000001011000 n"
-q"
1r"
b00000000000000000000000001010100 s"
b00000000100000000000000001101111 t"
1u"
#95000000
0'
0*
05
0n
02"
0A"
0u"
